## Interface: 100002
## Author: cqwrteur
## Title: LookingForGroup
## Version: @project-version@
## SavedVariables: LookingForGroupDB
## OptionalDeps: Ace3

#@no-lib-strip@
Libs\LibStub\LibStub.lua
Libs\CallbackHandler-1.0\CallbackHandler-1.0.xml
Libs\AceAddon-3.0\AceAddon-3.0.xml
Libs\AceEvent-3.0\AceEvent-3.0.xml
Libs\AceDB-3.0\AceDB-3.0.xml
Libs\AceConsole-3.0\AceConsole-3.0.xml
#@end-no-lib-strip@

Init.lua