## Interface: 100002
## Author: cqwrteur
## Title: LookingForGroup Options
## SavedVariables: LookingForGroup_OptionsDB
## LoadOnDemand: 1
## X-LFG-MESSAGE: LFG_ChatCommand,LFG_ICON_LEFT_CLICK,LFG_UPDATE_EDITING
## X-LFG-DISABLE-PVEFRAME-EVENT: AJ_PVE_LFG_ACTION,AJ_PVP_LFG_ACTION
## Dependencies: LookingForGroup

#@no-lib-strip@
..\LookingForGroup_Settings\Libs\AceGUI-3.0\AceGUI-3.0.xml
..\LookingForGroup_Settings\Libs\AceConfig-3.0\AceConfig-3.0.xml
..\LookingForGroup_Settings\Libs\AceDBOptions-3.0\AceDBOptions-3.0.xml
..\LookingForGroup_Settings\Libs\AceLocale-3.0\AceLocale-3.0.xml
#@end-no-lib-strip@

..\LookingForGroup_Settings\locale\locale.xml
..\LookingForGroup_Settings\options_init.lua
listing.lua
module.xml
Core.lua
